         run       event       nTopo   nIdTracks  nTauTracks       nTaus      nMuons       nElec   nTrueElec   nFakeElec       nPhot   nTruePhot   nFakePhot
      242000       60001         633          74           7           4           2           1           0           1           3           1           2
      242000       60002         410          51          16           3           2           5           2           3           3           2           1
      242000       60003         136           5           0           0           0           0           0           0           0           0           0
      242000       60004         321          21           8           3           2           2           0           2           4           1           3
      242000       60005         348          30           0           0           0           0           0           0           0           0           0
